%YAML 1.1
%TAG !u! tag:unity3d.com,2011:
--- !u!114 &11400000
MonoBehaviour:
  m_ObjectHideFlags: 0
  m_CorrespondingSourceObject: {fileID: 0}
  m_PrefabInstance: {fileID: 0}
  m_PrefabAsset: {fileID: 0}
  m_GameObject: {fileID: 0}
  m_Enabled: 1
  m_EditorHideFlags: 0
  m_Script: {fileID: 11500000, guid: 19f4cc5550c8d994988ce43008c47493, type: 3}
  m_Name: Item 0
  m_EditorClassIdentifier: 
  itemType: 0
  itemId: 0
  itemName: "\uB9C8\uBC95\uBD09"
  itemDesc: "\uB370\uBBF8\uC9C0 {0}% \uC99D\uAC00\n\uD68C\uC804\uCCB4 {1}\uAC1C \uCD94\uAC00"
  itemIcon: {fileID: -181907988, guid: d71a3dc7aa20fad4f9a99fc76a9254ba, type: 3}
  baseDamage: 4
  baseCount: 2
  damages:
  - 0
  - 0.5
  - 0
  - 0.5
  - 0.2
  counts: 0200000000000000010000000000000001000000
  projectile: {fileID: 7077267979798231964, guid: 3e5f6fd8540e7bd489b5fcde0e1e2dd0, type: 3}
  hand: {fileID: 21300000, guid: d5a1bb83aebc5ce43a22bb21b81469bf, type: 3}
