%YAML 1.1
%TAG !u! tag:unity3d.com,2011:
--- !u!114 &11400000
MonoBehaviour:
  m_ObjectHideFlags: 0
  m_CorrespondingSourceObject: {fileID: 0}
  m_PrefabInstance: {fileID: 0}
  m_PrefabAsset: {fileID: 0}
  m_GameObject: {fileID: 0}
  m_Enabled: 1
  m_EditorHideFlags: 0
  m_Script: {fileID: 11500000, guid: 19f4cc5550c8d994988ce43008c47493, type: 3}
  m_Name: Item 2
  m_EditorClassIdentifier: 
  itemType: 2
  itemId: 2
  itemName: "\uACE0\uBB34\uC7A5\uAC11"
  itemDesc: "\uC5F0\uC0AC\uC18D\uB3C4 {0}% \uC99D\uAC00"
  itemIcon: {fileID: -201829820, guid: d71a3dc7aa20fad4f9a99fc76a9254ba, type: 3}
  baseDamage: 0
  baseCount: 0
  damages:
  - 0.1
  - 0.2
  - 0.35
  - 0.5
  - 0.75
  counts: 0000000000000000000000000000000000000000
  projectile: {fileID: 0}
  hand: {fileID: 0}
