%YAML 1.1
%TAG !u! tag:unity3d.com,2011:
--- !u!221 &22100000
AnimatorOverrideController:
  m_ObjectHideFlags: 0
  m_CorrespondingSourceObject: {fileID: 0}
  m_PrefabInstance: {fileID: 0}
  m_PrefabAsset: {fileID: 0}
  m_Name: "\uBC30"
  m_Controller: {fileID: 9100000, guid: f2855d618fc8d9c499189d3f39b9cbbc, type: 2}
  m_Clips:
  - m_OriginalClip: {fileID: 7400000, guid: 41eb84b5ea0c13b4384ead9f37ce4b8d, type: 2}
    m_OverrideClip: {fileID: 7400000, guid: a656ecaebe7c677438d33f24bea126df, type: 2}
  - m_OriginalClip: {fileID: 7400000, guid: 28478ba90b1f6894ca487846b8539fd9, type: 2}
    m_OverrideClip: {fileID: 7400000, guid: a656ecaebe7c677438d33f24bea126df, type: 2}
  - m_OriginalClip: {fileID: 7400000, guid: bb6aa34a692c0f649b221cee2e9aac1b, type: 2}
    m_OverrideClip: {fileID: 7400000, guid: 82b0a379f66c5614c97e7996297e63b0, type: 2}
